%YAML 1.1
%TAG !u! tag:unity3d.com,2011:
--- !u!78 &1
TagManager:
  serializedVersion: 2
  tags:
  - Enemy
  - Enviroment
  - Room
  - DeathScreen
  - InGameToolTip
  - SpawnerManager
  - Door
  - Weapon
  - Gun
  - GameManager
  - SoundManager
  - EnemyHealth
  - HealthParticles
  - Sealed
  - PlayerRightHand
  - PlayerLeftHand
  - Stats
  - SlashParticles
  - GunClip
  - WTS
  - Locked
  - PlayerStats
  - WeaponStats
  - XPBar
  - Pickup
  - Boss
  - Fire
  - Pause
  - Long Hair
  - Short Hair
  - HealUI
  - HackUI
  - StaminaBar
  - BossRoom
  - Roof
  - LevelUI
  - HurtParticles
  - StartNode
  layers:
  - Default
  - TransparentFX
  - Ignore Raycast
  - 
  - Water
  - UI
  - 
  - 
  - Player
  - Floor
  - Room Objects
  - Enemy Projectiles
  - Enemy
  - Roof
  - 
  - 
  - 
  - 
  - 
  - 
  - 
  - 
  - 
  - 
  - 
  - 
  - 
  - 
  - 
  - 
  - 
  - 
  m_SortingLayers:
  - name: Default
    uniqueID: 0
    locked: 0
